week3/07_07/S01_ex_APB_memory/sim/xsim/wave.vcd
$date
   Wed Jul  8 11:37:21 2026
$end
$version
  2020.2
$end
$timescale
  1ps
$end
$scope module top $end
$var reg 1 ! PRESETn $end
$var reg 1 " PCLK $end
$var wire 4 # PSEL [3:0] $end
$var wire 32 $ PADDR [31:0] $end
$var wire 1 % PENABLE $end
$var wire 1 & PWRITE $end
$var wire 32 ' PWDATA [31:0] $end
$var wire 4 ( PREADY [3:0] $end
$var wire 4 ) PSLVERR [3:0] $end
$var wire 3 * PPROT [2:0] $end
$var wire 4 + PSTRB [3:0] $end
$var real 32 , stamp_x $end
$var real 32 - stamp_y $end
$var real 32 . delta $end
$var parameter 32 / P_NUM [31:0] $end
$var parameter 32 0 SIZE_IN_BYTES [31:0] $end
$var parameter 32 1 DELAY [31:0] $end
$var parameter 32 2 CLK_FREQ [31:0] $end
$var parameter 32 3 CLK_PERIOD_HALF [31:0] $end
$scope module u_bfm_apb $end
$var wire 1 4 PRESETn $end
$var wire 1 5 PCLK $end
$var reg 4 6 PSEL [3:0] $end
$var reg 32 7 PADDR [31:0] $end
$var reg 1 8 PENABLE $end
$var reg 1 9 PWRITE $end
$var reg 32 : PWDATA [31:0] $end
$var wire 32 ; PRDATA0 [31:0] $end
$var wire 32 < PRDATA1 [31:0] $end
$var wire 32 = PRDATA2 [31:0] $end
$var wire 32 > PRDATA3 [31:0] $end
$var reg 3 ? PPROT [2:0] $end
$var reg 4 @ PSTRB [3:0] $end
$var wire 4 ( PREADY [3:0] $end
$var wire 4 ) PSLVERR [3:0] $end
$var parameter 32 A P_NUM [31:0] $end
$var parameter 32 B P_DELAY [31:0] $end
$var parameter 32 C P_DWIDTH [31:0] $end
$var parameter 32 D P_STRB [31:0] $end
$var parameter 32 E P_SIZE_IN_BYTES [31:0] $end
$var parameter 32 F P_ADDR_START0 [31:0] $end
$var parameter 32 G P_SIZE0 [31:0] $end
$var parameter 32 H P_ADDR_START1 [31:0] $end
$var parameter 32 I P_SIZE1 [31:0] $end
$var parameter 32 J P_ADDR_START2 [31:0] $end
$var parameter 32 K P_SIZE2 [31:0] $end
$var parameter 32 L P_ADDR_START3 [31:0] $end
$var parameter 32 M P_SIZE3 [31:0] $end
$scope task memory_test $end
$var reg 32 N start [31:0] $end
$var reg 32 O finish [31:0] $end
$var reg 3 P size [2:0] $end
$var reg 32 Q dataW [31:0] $end
$var reg 32 R dataR [31:0] $end
$var integer 32 S a $end
$var integer 32 T b $end
$var integer 32 U err $end
$upscope $end
$scope task apb_write $end
$var reg 32 V addr [31:0] $end
$var reg 32 W data [31:0] $end
$var reg 3 X size [2:0] $end
$upscope $end
$scope task apb_read $end
$var reg 32 Y addr [31:0] $end
$var reg 32 Z data [31:0] $end
$var reg 3 [ size [2:0] $end
$upscope $end
$scope function decoder $end
$var reg 4 \ decoder [3:0] $end
$var reg 32 ] addr [31:0] $end
$upscope $end
$scope function get_pstrob $end
$var reg 4 ^ get_pstrob [3:0] $end
$var reg 32 _ addr [31:0] $end
$var reg 3 ` size [2:0] $end
$upscope $end
$scope function get_pready $end
$var reg 1 a get_pready $end
$var reg 32 b addr [31:0] $end
$upscope $end
$scope function get_pslverr $end
$var reg 1 c get_pslverr $end
$var reg 32 d addr [31:0] $end
$upscope $end
$scope function get_prdata $end
$var reg 32 e get_prdata [31:0] $end
$var reg 32 f addr [31:0] $end
$upscope $end
$upscope $end
$scope module P_BLOCK[0].u_mem_apb $end
$var wire 1 g PRESETn $end
$var wire 1 h PCLK $end
$var wire 1 i S_APB_PSEL $end
$var wire 1 % S_APB_PENABLE $end
$var wire 32 $ S_APB_PADDR [31:0] $end
$var wire 1 & S_APB_PWRITE $end
$var wire 32 ' S_APB_PWDATA [31:0] $end
$var reg 32 j S_APB_PRDATA [31:0] $end
$var reg 1 k S_APB_PREADY $end
$var reg 1 l S_APB_PSLVERR $end
$var wire 3 * S_APB_PPROT [2:0] $end
$var wire 4 + S_APB_PSTRB [3:0] $end
$var wire 8 m local_add [7:0] $end
$var reg 32 n cntDly [31:0] $end
$var reg 1 o state $end
$var wire 1 p access $end
$var wire 1 q access_ready $end
$var wire 1 r transfer_done $end
$var parameter 32 s SIZE_IN_BYTES [31:0] $end
$var parameter 32 t DELAY [31:0] $end
$var parameter 32 u ADD_WIDTH [31:0] $end
$var parameter 32 v ADD_OFFSET [31:0] $end
$var parameter 32 w ADD_NEW [31:0] $end
$var parameter 32 x DEPTH_NEW [31:0] $end
$var parameter 32 y ST_IDLE [31:0] $end
$var parameter 32 z ST_DELAY [31:0] $end
$upscope $end
$scope module P_BLOCK[1].u_mem_apb $end
$var wire 1 { PRESETn $end
$var wire 1 | PCLK $end
$var wire 1 } S_APB_PSEL $end
$var wire 1 % S_APB_PENABLE $end
$var wire 32 $ S_APB_PADDR [31:0] $end
$var wire 1 & S_APB_PWRITE $end
$var wire 32 ' S_APB_PWDATA [31:0] $end
$var reg 32 ~ S_APB_PRDATA [31:0] $end
$var reg 1 !! S_APB_PREADY $end
$var reg 1 "! S_APB_PSLVERR $end
$var wire 3 * S_APB_PPROT [2:0] $end
$var wire 4 + S_APB_PSTRB [3:0] $end
$var wire 8 #! local_add [7:0] $end
$var reg 32 $! cntDly [31:0] $end
$var reg 1 %! state $end
$var wire 1 &! access $end
$var wire 1 '! access_ready $end
$var wire 1 (! transfer_done $end
$var parameter 32 )! SIZE_IN_BYTES [31:0] $end
$var parameter 32 *! DELAY [31:0] $end
$var parameter 32 +! ADD_WIDTH [31:0] $end
$var parameter 32 ,! ADD_OFFSET [31:0] $end
$var parameter 32 -! ADD_NEW [31:0] $end
$var parameter 32 .! DEPTH_NEW [31:0] $end
$var parameter 32 /! ST_IDLE [31:0] $end
$var parameter 32 0! ST_DELAY [31:0] $end
$upscope $end
$scope module P_BLOCK[2].u_mem_apb $end
$var wire 1 1! PRESETn $end
$var wire 1 2! PCLK $end
$var wire 1 3! S_APB_PSEL $end
$var wire 1 % S_APB_PENABLE $end
$var wire 32 $ S_APB_PADDR [31:0] $end
$var wire 1 & S_APB_PWRITE $end
$var wire 32 ' S_APB_PWDATA [31:0] $end
$var reg 32 4! S_APB_PRDATA [31:0] $end
$var reg 1 5! S_APB_PREADY $end
$var reg 1 6! S_APB_PSLVERR $end
$var wire 3 * S_APB_PPROT [2:0] $end
$var wire 4 + S_APB_PSTRB [3:0] $end
$var wire 8 7! local_add [7:0] $end
$var reg 32 8! cntDly [31:0] $end
$var reg 1 9! state $end
$var wire 1 :! access $end
$var wire 1 ;! access_ready $end
$var wire 1 <! transfer_done $end
$var parameter 32 =! SIZE_IN_BYTES [31:0] $end
$var parameter 32 >! DELAY [31:0] $end
$var parameter 32 ?! ADD_WIDTH [31:0] $end
$var parameter 32 @! ADD_OFFSET [31:0] $end
$var parameter 32 A! ADD_NEW [31:0] $end
$var parameter 32 B! DEPTH_NEW [31:0] $end
$var parameter 32 C! ST_IDLE [31:0] $end
$var parameter 32 D! ST_DELAY [31:0] $end
$upscope $end
$scope module P_BLOCK[3].u_mem_apb $end
$var wire 1 E! PRESETn $end
$var wire 1 F! PCLK $end
$var wire 1 G! S_APB_PSEL $end
$var wire 1 % S_APB_PENABLE $end
$var wire 32 $ S_APB_PADDR [31:0] $end
$var wire 1 & S_APB_PWRITE $end
$var wire 32 ' S_APB_PWDATA [31:0] $end
$var reg 32 H! S_APB_PRDATA [31:0] $end
$var reg 1 I! S_APB_PREADY $end
$var reg 1 J! S_APB_PSLVERR $end
$var wire 3 * S_APB_PPROT [2:0] $end
$var wire 4 + S_APB_PSTRB [3:0] $end
$var wire 8 K! local_add [7:0] $end
$var reg 32 L! cntDly [31:0] $end
$var reg 1 M! state $end
$var wire 1 N! access $end
$var wire 1 O! access_ready $end
$var wire 1 P! transfer_done $end
$var parameter 32 Q! SIZE_IN_BYTES [31:0] $end
$var parameter 32 R! DELAY [31:0] $end
$var parameter 32 S! ADD_WIDTH [31:0] $end
$var parameter 32 T! ADD_OFFSET [31:0] $end
$var parameter 32 U! ADD_NEW [31:0] $end
$var parameter 32 V! DEPTH_NEW [31:0] $end
$var parameter 32 W! ST_IDLE [31:0] $end
$var parameter 32 X! ST_DELAY [31:0] $end
$upscope $end
$upscope $end
$enddefinitions $end
#0
$dumpvars
0!
1!!
0"
0"!
b0 #
b11111111 #!
b11111111111111111111111111111111 $
b1 $!
0%
0%!
0&
0&!
b11111111111111111111111111111111 '
1'!
b1111 (
0(!
b0 )
b10000000000 )!
b0 *
b0 *!
b0 +
b1010 +!
r0 ,
b10 ,!
r0 -
b1000 -!
r0 .
b100000000 .!
b100 /
b0 /!
b10000000000 0
b1 0!
b0 1
01!
b10111110101111000010000000 2
02!
b1010 3
03!
04
b11111111111111111111111111111111 4!
05
15!
b0 6
06!
b11111111111111111111111111111111 7
b11111111 7!
08
b1 8!
09
09!
b11111111111111111111111111111111 :
0:!
b11111111111111111111111111111111 ;
1;!
b11111111111111111111111111111111 <
0<!
b11111111111111111111111111111111 =
b10000000000 =!
b11111111111111111111111111111111 >
b0 >!
b0 ?
b1010 ?!
b0 @
b10 @!
b100 A
b1000 A!
b0 B
b100000000 B!
b100000 C
b0 C!
b100 D
b1 D!
b10000000000 E
0E!
b0 F
0F!
b10000000000 G
0G!
b10000000000000000 H
b11111111111111111111111111111111 H!
b10000000000 I
1I!
b100000000000000000 J
0J!
b10000000000 K
b11111111 K!
b110000000000000000 L
b1 L!
b10000000000 M
0M!
bx N
0N!
bx O
1O!
bx P
0P!
bx Q
b10000000000 Q!
bx R
b0 R!
bx S
b1010 S!
bx T
b10 T!
bx U
b1000 U!
bx V
b100000000 V!
bx W
b0 W!
bx X
b1 X!
bx Y
bx Z
bx [
bx \
bx ]
bx ^
bx _
bx `
xa
bx b
xc
bx d
bx e
bx f
0g
0h
0i
b11111111111111111111111111111111 j
1k
0l
b11111111 m
b1 n
0o
0p
1q
0r
b10000000000 s
b0 t
b1010 u
b10 v
b1000 w
b100000000 x
b0 y
b1 z
0{
0|
0}
b11111111111111111111111111111111 ~
$end
#10000
1"
b1 $!
0%!
12!
15
b1 8!
09!
1F!
b1 L!
0M!
1h
b1 n
0o
1|
#20000
0"
02!
05
0F!
0h
0|
#30000
1"
b1 $!
0%!
12!
15
b1 8!
09!
1F!
b1 L!
0M!
1h
b1 n
0o
1|
#40000
0"
02!
05
0F!
0h
0|
#50000
1"
b1 $!
0%!
12!
15
b1 8!
09!
1F!
b1 L!
0M!
1h
b1 n
0o
1|
#60000
0"
02!
05
0F!
0h
0|
#70000
1"
b1 $!
0%!
12!
15
b1 8!
09!
1F!
b1 L!
0M!
1h
b1 n
0o
1|
#80000
0"
02!
05
0F!
0h
0|
#90000
1"
b1 $!
0%!
12!
15
b1 8!
09!
1F!
b1 L!
0M!
1h
b1 n
0o
1|
#100000
0"
02!
05
0F!
0h
0|
#110000
1"
b1 $!
0%!
12!
15
b1 8!
09!
1F!
b1 L!
0M!
1h
b1 n
0o
1|
#120000
0"
02!
05
0F!
0h
0|
#130000
1"
b1 $!
0%!
12!
15
b1 8!
09!
1F!
b1 L!
0M!
1h
b1 n
0o
1|
#140000
0"
02!
05
0F!
0h
0|
#150000
1"
b1 $!
0%!
12!
15
b1 8!
09!
1F!
b1 L!
0M!
1h
b1 n
0o
1|
#160000
0"
02!
05
0F!
0h
0|
#170000
1"
b1 $!
0%!
12!
15
b1 8!
09!
1F!
b1 L!
0M!
1h
b1 n
0o
1|
#180000
0"
02!
05
0F!
0h
0|
#190000
1!
1!!
1"
0"!
b1 $!
0%!
11!
12!
14
b11111111111111111111111111111111 4!
15
15!
06!
b1 8!
09!
1E!
1F!
b11111111111111111111111111111111 H!
1I!
0J!
b1 L!
0M!
1g
1h
b11111111111111111111111111111111 j
1k
0l
b1 n
0o
1{
1|
b11111111111111111111111111111111 ~
#200000
0"
02!
05
0F!
0h
0|
#210000
1"
12!
15
1F!
1h
1|
#220000
0"
02!
05
0F!
0h
0|
#230000
1"
12!
15
1F!
1h
1|
#240000
0"
02!
05
0F!
0h
0|
#250000
1"
12!
15
1F!
b0 N
b10000 O
b100 P
b10010000101010011010100100100 Q
b0 S
b0 U
b0 V
b10010000101010011010100100100 W
b100 X
1h
1|
#260000
0"
02!
05
0F!
0h
0|
#270000
1"
12!
15
1F!
b1 \
b0 ]
b1111 ^
b0 _
b100 `
1h
1|
#271000
b1 #
b0 #!
b0 $
1&
b10010000101010011010100100100 '
b1111 +
03!
b11111111111111111111111111111111 4!
b1 6
b0 7
b0 7!
19
b10010000101010011010100100100 :
b1111 @
0G!
b11111111111111111111111111111111 H!
b0 K!
1i
b11111111111111111111111111111111 j
b0 m
0p
0}
b11111111111111111111111111111111 ~
#280000
0"
02!
05
0F!
0h
0|
#290000
1"
12!
15
1F!
1h
1|
#291000
1%
0&!
18
0:!
0N!
1p
1q
1r
#300000
0"
02!
05
0F!
0h
0|
#310000
1"
12!
15
1F!
b0 Y
b100 [
1a
b0 b
0c
b0 d
1h
b11111111111111111111111111111111 j
1|
#311000
b0 #
0%
0&
0&!
b11111111111111111111111111111111 '
03!
b11111111111111111111111111111111 4!
b0 6
b0 7
08
09
b11111111111111111111111111111111 :
0:!
0G!
b11111111111111111111111111111111 H!
0N!
0i
b11111111111111111111111111111111 j
0p
1q
0r
0}
b11111111111111111111111111111111 ~
#320000
0"
02!
05
0F!
0h
0|
#330000
1"
12!
15
1F!
b1 \
b0 ]
1h
1|
#331000
b1 #
b0 +
03!
b1 6
b0 7
09
b10010000101010011010100100100 ;
b0 @
0G!
1i
b10010000101010011010100100100 j
0p
0}
#340000
0"
02!
05
0F!
0h
0|
#350000
1"
12!
15
1F!
1h
1|
#351000
1%
0&!
18
0:!
0N!
1p
1q
1r
#360000
0"
02!
05
0F!
0h
0|
#370000
1"
12!
15
1F!
b11000000100010010101111010000001 Q
b10010000101010011010100100100 R
b100 S
b100 V
b11000000100010010101111010000001 W
b100 X
b10010000101010011010100100100 Z
b0 b
b0 d
b10010000101010011010100100100 e
b0 f
1h
1|
#371000
b0 #
0%
0&!
03!
b0 6
b0 7
08
0:!
b11111111111111111111111111111111 ;
0G!
0N!
0i
b11111111111111111111111111111111 j
0p
1q
0r
0}
#380000
0"
02!
05
0F!
0h
0|
#390000
1"
12!
15
1F!
b1 \
b100 ]
b1111 ^
b100 _
b100 `
1h
1|
#391000
b1 #
b1 #!
b100 $
1&
b11000000100010010101111010000001 '
b1111 +
03!
b11111111111111111111111111111111 4!
b1 6
b100 7
b1 7!
19
b11000000100010010101111010000001 :
b1111 @
0G!
b11111111111111111111111111111111 H!
b1 K!
1i
b11111111111111111111111111111111 j
b1 m
0p
0}
b11111111111111111111111111111111 ~
#400000
0"
02!
05
0F!
0h
0|
#410000
1"
12!
15
1F!
1h
1|
#411000
1%
0&!
18
0:!
0N!
1p
1q
1r
#420000
0"
02!
05
0F!
0h
0|
#430000
1"
12!
15
1F!
b100 Y
b100 [
b100 b
b100 d
1h
b11111111111111111111111111111111 j
1|
#431000
b0 #
b0 #!
b0 $
0%
0&
0&!
b11111111111111111111111111111111 '
03!
b11111111111111111111111111111111 4!
b0 6
b0 7
b0 7!
08
09
b11111111111111111111111111111111 :
0:!
0G!
b11111111111111111111111111111111 H!
b0 K!
0N!
0i
b11111111111111111111111111111111 j
b0 m
0p
1q
0r
0}
b11111111111111111111111111111111 ~
#440000
0"
02!
05
0F!
0h
0|
#450000
1"
12!
15
1F!
b1 \
b100 ]
1h
1|
#451000
b1 #
b1 #!
b100 $
b0 +
03!
b11111111111111111111111111111111 4!
b1 6
b100 7
b1 7!
09
b11000000100010010101111010000001 ;
b0 @
0G!
b11111111111111111111111111111111 H!
b1 K!
1i
b11000000100010010101111010000001 j
b1 m
0p
0}
b11111111111111111111111111111111 ~
#460000
0"
02!
05
0F!
0h
0|
#470000
1"
12!
15
1F!
1h
1|
#471000
1%
0&!
18
0:!
0N!
1p
1q
1r
#480000
0"
02!
05
0F!
0h
0|
#490000
1"
12!
15
1F!
b10000100100001001101011000001001 Q
b11000000100010010101111010000001 R
b1000 S
b1000 V
b10000100100001001101011000001001 W
b100 X
b11000000100010010101111010000001 Z
b100 b
b100 d
b11000000100010010101111010000001 e
b100 f
1h
1|
#491000
b0 #
b0 #!
b0 $
0%
0&!
03!
b11111111111111111111111111111111 4!
b0 6
b0 7
b0 7!
08
0:!
b11111111111111111111111111111111 ;
0G!
b11111111111111111111111111111111 H!
b0 K!
0N!
0i
b11111111111111111111111111111111 j
b0 m
0p
1q
0r
0}
b11111111111111111111111111111111 ~
#500000
0"
02!
05
0F!
0h
0|
#510000
1"
12!
15
1F!
b1 \
b1000 ]
b1111 ^
b1000 _
b100 `
1h
1|
#511000
b1 #
b10 #!
b1000 $
1&
b10000100100001001101011000001001 '
b1111 +
03!
b11111111111111111111111111111111 4!
b1 6
b1000 7
b10 7!
19
b10000100100001001101011000001001 :
b1111 @
0G!
b11111111111111111111111111111111 H!
b10 K!
1i
b11111111111111111111111111111111 j
b10 m
0p
0}
b11111111111111111111111111111111 ~
#520000
0"
02!
05
0F!
0h
0|
#530000
1"
12!
15
1F!
1h
1|
#531000
1%
0&!
18
0:!
0N!
1p
1q
1r
#540000
0"
02!
05
0F!
0h
0|
#550000
1"
12!
15
1F!
b1000 Y
b100 [
b1000 b
b1000 d
1h
b11111111111111111111111111111111 j
1|
#551000
b0 #
b0 #!
b0 $
0%
0&
0&!
b11111111111111111111111111111111 '
03!
b11111111111111111111111111111111 4!
b0 6
b0 7
b0 7!
08
09
b11111111111111111111111111111111 :
0:!
0G!
b11111111111111111111111111111111 H!
b0 K!
0N!
0i
b11111111111111111111111111111111 j
b0 m
0p
1q
0r
0}
b11111111111111111111111111111111 ~
#560000
0"
02!
05
0F!
0h
0|
#570000
1"
12!
15
1F!
b1 \
b1000 ]
1h
1|
#571000
b1 #
b10 #!
b1000 $
b0 +
03!
b11111111111111111111111111111111 4!
b1 6
b1000 7
b10 7!
09
b10000100100001001101011000001001 ;
b0 @
0G!
b11111111111111111111111111111111 H!
b10 K!
1i
b10000100100001001101011000001001 j
b10 m
0p
0}
b11111111111111111111111111111111 ~
#580000
0"
02!
05
0F!
0h
0|
#590000
1"
12!
15
1F!
1h
1|
#591000
1%
0&!
18
0:!
0N!
1p
1q
1r
#600000
0"
02!
05
0F!
0h
0|
#610000
1"
12!
15
1F!
b10000100100001001101011000001001 R
b0 S
b0 T
b0 U
b0 V
b10110001111100000101011001100011 W
b100 X
b10000100100001001101011000001001 Z
b1000 b
b1000 d
b10000100100001001101011000001001 e
b1000 f
1h
1|
#611000
b0 #
b0 #!
b0 $
0%
0&!
03!
b11111111111111111111111111111111 4!
b0 6
b0 7
b0 7!
08
0:!
b11111111111111111111111111111111 ;
0G!
b11111111111111111111111111111111 H!
b0 K!
0N!
0i
b11111111111111111111111111111111 j
b0 m
0p
1q
0r
0}
b11111111111111111111111111111111 ~
#620000
0"
02!
05
0F!
0h
0|
#630000
1"
12!
15
1F!
b1 \
b0 ]
b1111 ^
b0 _
b100 `
1h
1|
#631000
b1 #
1&
b10110001111100000101011001100011 '
b1111 +
03!
b11111111111111111111111111111111 4!
b1 6
b0 7
19
b10110001111100000101011001100011 :
b1111 @
0G!
b11111111111111111111111111111111 H!
1i
b11111111111111111111111111111111 j
0p
0}
b11111111111111111111111111111111 ~
#640000
0"
02!
05
0F!
0h
0|
#650000
1"
12!
15
1F!
1h
1|
#651000
1%
0&!
18
0:!
0N!
1p
1q
1r
#660000
0"
02!
05
0F!
0h
0|
#670000
1"
12!
15
1F!
b100 S
b100 T
b100 V
b110101110010111101100001101 W
b100 X
b0 b
b0 d
1h
b11111111111111111111111111111111 j
1|
#671000
b0 #
0%
0&
0&!
b11111111111111111111111111111111 '
03!
b11111111111111111111111111111111 4!
b0 6
b0 7
08
09
b11111111111111111111111111111111 :
0:!
0G!
b11111111111111111111111111111111 H!
0N!
0i
b11111111111111111111111111111111 j
0p
1q
0r
0}
b11111111111111111111111111111111 ~
#680000
0"
02!
05
0F!
0h
0|
#690000
1"
12!
15
1F!
b1 \
b100 ]
b1111 ^
b100 _
b100 `
1h
1|
#691000
b1 #
b1 #!
b100 $
1&
b110101110010111101100001101 '
03!
b11111111111111111111111111111111 4!
b1 6
b100 7
b1 7!
19
b110101110010111101100001101 :
b1111 @
0G!
b11111111111111111111111111111111 H!
b1 K!
1i
b11111111111111111111111111111111 j
b1 m
0p
0}
b11111111111111111111111111111111 ~
#700000
0"
02!
05
0F!
0h
0|
#710000
1"
12!
15
1F!
1h
1|
#711000
1%
0&!
18
0:!
0N!
1p
1q
1r
#720000
0"
02!
05
0F!
0h
0|
#730000
1"
12!
15
1F!
b1000 S
b1000 T
b1000 V
b1000110110111111001100110001101 W
b100 X
b100 b
b100 d
1h
b11111111111111111111111111111111 j
1|
#731000
b0 #
b0 #!
b0 $
0%
0&
0&!
b11111111111111111111111111111111 '
03!
b11111111111111111111111111111111 4!
b0 6
b0 7
b0 7!
08
09
b11111111111111111111111111111111 :
0:!
0G!
b11111111111111111111111111111111 H!
b0 K!
0N!
0i
b11111111111111111111111111111111 j
b0 m
0p
1q
0r
0}
b11111111111111111111111111111111 ~
#740000
0"
02!
05
0F!
0h
0|
#750000
1"
12!
15
1F!
b1 \
b1000 ]
b1111 ^
b1000 _
b100 `
1h
1|
#751000
b1 #
b10 #!
b1000 $
1&
b1000110110111111001100110001101 '
03!
b11111111111111111111111111111111 4!
b1 6
b1000 7
b10 7!
19
b1000110110111111001100110001101 :
b1111 @
0G!
b11111111111111111111111111111111 H!
b10 K!
1i
b11111111111111111111111111111111 j
b10 m
0p
0}
b11111111111111111111111111111111 ~
#760000
0"
02!
05
0F!
0h
0|
#770000
1"
12!
15
1F!
1h
1|
#771000
1%
0&!
18
0:!
0N!
1p
1q
1r
#780000
0"
02!
05
0F!
0h
0|
#790000
1"
12!
15
1F!
b0 S
b0 T
b0 Y
b100 [
b1000 b
b1000 d
1h
b11111111111111111111111111111111 j
1|
#791000
b0 #
b0 #!
b0 $
0%
0&
0&!
b11111111111111111111111111111111 '
03!
b11111111111111111111111111111111 4!
b0 6
b0 7
b0 7!
08
09
b11111111111111111111111111111111 :
0:!
0G!
b11111111111111111111111111111111 H!
b0 K!
0N!
0i
b11111111111111111111111111111111 j
b0 m
0p
1q
0r
0}
b11111111111111111111111111111111 ~
#800000
0"
02!
05
0F!
0h
0|
#810000
1"
12!
15
1F!
b1 \
b0 ]
1h
1|
#811000
b1 #
b0 +
03!
b1 6
b0 7
09
b10110001111100000101011001100011 ;
b0 @
0G!
1i
b10110001111100000101011001100011 j
0p
0}
#820000
0"
02!
05
0F!
0h
0|
#830000
1"
12!
15
1F!
1h
1|
#831000
1%
0&!
18
0:!
0N!
1p
1q
1r
#840000
0"
02!
05
0F!
0h
0|
#850000
1"
12!
15
1F!
b10110001111100000101011001100011 R
b100 S
b100 T
b100 Y
b10110001111100000101011001100011 Z
b100 [
b0 b
b0 d
b10110001111100000101011001100011 e
b0 f
1h
1|
#851000
b0 #
0%
0&!
03!
b0 6
b0 7
08
0:!
b11111111111111111111111111111111 ;
0G!
0N!
0i
b11111111111111111111111111111111 j
0p
1q
0r
0}
#860000
0"
02!
05
0F!
0h
0|
#870000
1"
12!
15
1F!
b1 \
b100 ]
1h
1|
#871000
b1 #
b1 #!
b100 $
03!
b11111111111111111111111111111111 4!
b1 6
b100 7
b1 7!
09
b110101110010111101100001101 ;
b0 @
0G!
b11111111111111111111111111111111 H!
b1 K!
1i
b110101110010111101100001101 j
b1 m
0p
0}
b11111111111111111111111111111111 ~
#880000
0"
02!
05
0F!
0h
0|
#890000
1"
12!
15
1F!
1h
1|
#891000
1%
0&!
18
0:!
0N!
1p
1q
1r
#900000
0"
02!
05
0F!
0h
0|
#910000
1"
12!
15
1F!
b110101110010111101100001101 R
b1000 S
b1000 T
b1000 Y
b110101110010111101100001101 Z
b100 [
b100 b
b100 d
b110101110010111101100001101 e
b100 f
1h
1|
#911000
b0 #
b0 #!
b0 $
0%
0&!
03!
b11111111111111111111111111111111 4!
b0 6
b0 7
b0 7!
08
0:!
b11111111111111111111111111111111 ;
0G!
b11111111111111111111111111111111 H!
b0 K!
0N!
0i
b11111111111111111111111111111111 j
b0 m
0p
1q
0r
0}
b11111111111111111111111111111111 ~
#920000
0"
02!
05
0F!
0h
0|
#930000
1"
12!
15
1F!
b1 \
b1000 ]
1h
1|
#931000
b1 #
b10 #!
b1000 $
03!
b11111111111111111111111111111111 4!
b1 6
b1000 7
b10 7!
09
b1000110110111111001100110001101 ;
b0 @
0G!
b11111111111111111111111111111111 H!
b10 K!
1i
b1000110110111111001100110001101 j
b10 m
0p
0}
b11111111111111111111111111111111 ~
#940000
0"
02!
05
0F!
0h
0|
#950000
1"
12!
15
1F!
1h
1|
#951000
1%
0&!
18
0:!
0N!
1p
1q
1r
#960000
0"
02!
05
0F!
0h
0|
#970000
1"
12!
15
1F!
b10000000000000000 N
b10000000000010000 O
b100 P
b10110010110000101000010001100101 Q
b1000110110111111001100110001101 R
b10000000000000000 S
b0 U
b10000000000000000 V
b10110010110000101000010001100101 W
b100 X
b1000110110111111001100110001101 Z
b1000 b
b1000 d
b1000110110111111001100110001101 e
b1000 f
1h
1|
#971000
b0 #
b0 #!
b0 $
0%
0&!
03!
b11111111111111111111111111111111 4!
b0 6
b0 7
b0 7!
08
0:!
b11111111111111111111111111111111 ;
0G!
b11111111111111111111111111111111 H!
b0 K!
0N!
0i
b11111111111111111111111111111111 j
b0 m
0p
1q
0r
0}
b11111111111111111111111111111111 ~
#980000
0"
02!
05
0F!
0h
0|
#990000
1"
12!
15
1F!
b10 \
b10000000000000000 ]
b1111 ^
b10000000000000000 _
b100 `
1h
1|
#991000
b10 #
b10000000000000000 $
1&
0&!
b10110010110000101000010001100101 '
b1111 +
03!
b11111111111111111111111111111111 4!
b10 6
b10000000000000000 7
19
b10110010110000101000010001100101 :
b1111 @
0G!
b11111111111111111111111111111111 H!
0i
b11111111111111111111111111111111 j
1}
b11111111111111111111111111111111 ~
#1000000
0"
02!
05
0F!
0h
0|
#1010000
1"
12!
15
1F!
1h
1|
#1011000
1%
1&!
1'!
1(!
18
0:!
0N!
0p
#1020000
0"
02!
05
0F!
0h
0|
#1030000
1"
12!
15
1F!
b10000000000000000 Y
b100 [
b10000000000000000 b
b10000000000000000 d
1h
1|
b11111111111111111111111111111111 ~
#1031000
b0 #
b0 $
0%
0&
0&!
b11111111111111111111111111111111 '
1'!
0(!
03!
b11111111111111111111111111111111 4!
b0 6
b0 7
08
09
b11111111111111111111111111111111 :
0:!
0G!
b11111111111111111111111111111111 H!
0N!
0i
b11111111111111111111111111111111 j
0p
0}
b11111111111111111111111111111111 ~
#1040000
0"
02!
05
0F!
0h
0|
#1050000
1"
12!
15
1F!
b10 \
b10000000000000000 ]
1h
1|
#1051000
b10 #
b10000000000000000 $
0&!
b0 +
03!
b10 6
b10000000000000000 7
09
b10110010110000101000010001100101 <
b0 @
0G!
0i
1}
b10110010110000101000010001100101 ~
#1060000
0"
02!
05
0F!
0h
0|
#1070000
1"
12!
15
1F!
1h
1|
#1071000
1%
1&!
1'!
1(!
18
0:!
0N!
0p
#1080000
0"
02!
05
0F!
0h
0|
#1090000
1"
12!
15
1F!
b10001001001101110101001000010010 Q
b10110010110000101000010001100101 R
b10000000000000100 S
b10000000000000100 V
b10001001001101110101001000010010 W
b100 X
b10110010110000101000010001100101 Z
b10000000000000000 b
b10000000000000000 d
b10110010110000101000010001100101 e
b10000000000000000 f
1h
1|
#1091000
b0 #
b0 $
0%
0&!
1'!
0(!
03!
b0 6
b0 7
08
0:!
b11111111111111111111111111111111 <
0G!
0N!
0i
0p
0}
b11111111111111111111111111111111 ~
#1100000
0"
02!
05
0F!
0h
0|
#1110000
1"
12!
15
1F!
b10 \
b10000000000000100 ]
b1111 ^
b10000000000000100 _
b100 `
1h
1|
#1111000
b10 #
b1 #!
b10000000000000100 $
1&
0&!
b10001001001101110101001000010010 '
b1111 +
03!
b11111111111111111111111111111111 4!
b10 6
b10000000000000100 7
b1 7!
19
b10001001001101110101001000010010 :
b1111 @
0G!
b11111111111111111111111111111111 H!
b1 K!
0i
b11111111111111111111111111111111 j
b1 m
1}
b11111111111111111111111111111111 ~
#1120000
0"
02!
05
0F!
0h
0|
#1130000
1"
12!
15
1F!
1h
1|
#1131000
1%
1&!
1'!
1(!
18
0:!
0N!
0p
#1140000
0"
02!
05
0F!
0h
0|
#1150000
1"
12!
15
1F!
b10000000000000100 Y
b100 [
b10000000000000100 b
b10000000000000100 d
1h
1|
b11111111111111111111111111111111 ~
#1151000
b0 #
b0 #!
b0 $
0%
0&
0&!
b11111111111111111111111111111111 '
1'!
0(!
03!
b11111111111111111111111111111111 4!
b0 6
b0 7
b0 7!
08
09
b11111111111111111111111111111111 :
0:!
0G!
b11111111111111111111111111111111 H!
b0 K!
0N!
0i
b11111111111111111111111111111111 j
b0 m
0p
0}
b11111111111111111111111111111111 ~
#1160000
0"
02!
05
0F!
0h
0|
#1170000
1"
12!
15
1F!
b10 \
b10000000000000100 ]
1h
1|
#1171000
b10 #
b1 #!
b10000000000000100 $
0&!
b0 +
03!
b11111111111111111111111111111111 4!
b10 6
b10000000000000100 7
b1 7!
09
b10001001001101110101001000010010 <
b0 @
0G!
b11111111111111111111111111111111 H!
b1 K!
0i
b11111111111111111111111111111111 j
b1 m
1}
b10001001001101110101001000010010 ~
#1180000
0"
02!
05
0F!
0h
0|
#1190000
1"
12!
15
1F!
1h
1|
#1191000
1%
1&!
1'!
1(!
18
0:!
0N!
0p
#1200000
0"
02!
05
0F!
0h
0|
