week3/07_07/S01_ex_partial_memory/sim/xsim/wave.vcd
$date
   Tue Jul  7 10:35:13 2026
$end
$version
  2020.2
$end
$timescale
  1ns
$end
$scope module top $end
$var reg 1 ! clk $end
$var wire 10 " add [9:0] $end
$var wire 8 # dataW [7:0] $end
$var wire 8 $ dataR [7:0] $end
$var wire 1 % en $end
$var wire 1 & we $end
$var parameter 32 ' CLK_FREQ [31:0] $end
$var parameter 32 ( CLK_PERIOD_HALF [31:0] $end
$var parameter 32 ) ADD_WIDTH [31:0] $end
$var parameter 32 * DAT_WIDTH [31:0] $end
$scope module u_memory $end
$var wire 1 + clk $end
$var wire 1 % en $end
$var wire 1 & we $end
$var wire 10 " add [9:0] $end
$var wire 8 # din [7:0] $end
$var reg 8 , dout [7:0] $end
$var parameter 32 - ADD_WIDTH [31:0] $end
$var parameter 32 . DAT_WIDTH [31:0] $end
$var parameter 32 / DELAY [31:0] $end
$var parameter 32 0 DEPTH [31:0] $end
$upscope $end
$scope module u_tester $end
$var wire 1 1 clk $end
$var wire 8 $ dataR [7:0] $end
$var reg 1 2 en $end
$var reg 1 3 we $end
$var reg 10 4 add [9:0] $end
$var reg 8 5 dataW [7:0] $end
$var reg 1 6 done $end
$var reg 8 7 data [7:0] $end
$var parameter 32 8 ADD_WIDTH [31:0] $end
$var parameter 32 9 DAT_WIDTH [31:0] $end
$var parameter 32 : DELAY [31:0] $end
$var parameter 32 ; DEPTH [31:0] $end
$scope task read_after_write $end
$var reg 10 < A [9:0] $end
$var reg 8 = D [7:0] $end
$upscope $end
$scope task write_after_read $end
$var reg 10 > A [9:0] $end
$var reg 8 ? D [7:0] $end
$upscope $end
$upscope $end
$upscope $end
$enddefinitions $end
#0
$dumpvars
0!
bx "
bx #
bx $
x%
0&
b10111110101111000010000000 '
b1010 (
b1010 )
b1000 *
0+
bx ,
b1010 -
b1000 .
b1 /
b10000000000 0
01
x2
03
bx 4
bx 5
06
b10100101 7
b1010 8
b1000 9
b1 :
b10000000000 ;
b1010 <
b10100101 =
bx >
bx ?
$end
#10
1!
1+
11
#11
b1010 "
b10100101 #
1%
1&
12
13
b1010 4
b10100101 5
#20
0!
0+
01
#30
1!
1+
11
#31
b10100101 $
0%
0&
b10100101 ,
02
03
#40
0!
0+
01
#50
1!
1+
11
03
#60
0!
0+
01
#70
1!
1+
11
#71
1%
12
b1010 4
#80
0!
0+
01
#90
1!
1+
11
#91
0%
b10100101 ,
02
#100
0!
0+
01
#110
1!
1+
11
03
b10100101 7
b10100101 =
b1111 >
b10100101 ?
#120
0!
0+
01
#130
1!
1+
11
#131
b1111 "
1%
12
b1111 4
#140
0!
0+
01
#150
1!
1+
11
#151
bx $
0%
bx ,
02
#160
0!
0+
01
#170
1!
1+
11
03
bx ?
#180
0!
0+
01
#190
1!
1+
11
#191
bx #
1%
1&
12
13
b1111 4
bx 5
#200
0!
0+
01
#210
1!
1+
11
#211
0%
0&
bx ,
02
03
#220
0!
0+
01
#230
1!
1+
11
03
#240
0!
0+
01
#250
1!
1+
11
#251
1%
12
b1111 4
#260
0!
0+
01
#270
1!
1+
11
#271
0%
bx ,
02
#280
0!
0+
01
#290
1!
1+
11
16
bx 7
bx ?
