week3/07_07/S01_ex_APB_memory/sim.gate/xsim/wave.vcd
$date
   Tue Jul  7 10:46:09 2026
$end
$version
  2020.2
$end
$timescale
  1ps
$end
$scope module top $end
$var reg 1 ! clk $end
$var wire 10 " add [9:0] $end
$var wire 8 # dataW [7:0] $end
$var wire 8 $ dataR [7:0] $end
$var wire 1 % en $end
$var wire 1 & we $end
$var parameter 32 ' CLK_FREQ [31:0] $end
$var parameter 32 ( CLK_PERIOD_HALF [31:0] $end
$var parameter 32 ) ADD_WIDTH [31:0] $end
$var parameter 32 * DAT_WIDTH [31:0] $end
$scope module u_memory $end
$var wire 10 " add [9:0] $end
$var wire 1 + clk $end
$var wire 8 # din [7:0] $end
$var wire 8 $ dout [7:0] $end
$var wire 1 % en $end
$var wire 1 & we $end
$var wire 8 , NLW_mem_reg_DOADO_UNCONNECTED [15:8] $end
$var wire 16 - NLW_mem_reg_DOBDO_UNCONNECTED [15:0] $end
$var wire 2 . NLW_mem_reg_DOPADOP_UNCONNECTED [1:0] $end
$var wire 2 / NLW_mem_reg_DOPBDOP_UNCONNECTED [1:0] $end
$upscope $end
$scope module u_tester $end
$var wire 1 0 clk $end
$var wire 8 $ dataR [7:0] $end
$var reg 1 1 en $end
$var reg 1 2 we $end
$var reg 10 3 add [9:0] $end
$var reg 8 4 dataW [7:0] $end
$var reg 1 5 done $end
$var reg 8 6 data [7:0] $end
$var parameter 32 7 ADD_WIDTH [31:0] $end
$var parameter 32 8 DAT_WIDTH [31:0] $end
$var parameter 32 9 DELAY [31:0] $end
$var parameter 32 : DEPTH [31:0] $end
$scope task read_after_write $end
$var reg 10 ; A [9:0] $end
$var reg 8 < D [7:0] $end
$upscope $end
$scope task write_after_read $end
$var reg 10 = A [9:0] $end
$var reg 8 > D [7:0] $end
$upscope $end
$upscope $end
$upscope $end
$enddefinitions $end
#0
$dumpvars
0!
bx "
bx #
bx $
x%
0&
b10111110101111000010000000 '
b1010 (
b1010 )
b1000 *
0+
bx ,
bx -
bx .
bx /
00
x1
02
bx 3
bx 4
05
b10100101 6
b1010 7
b1000 8
b1 9
b10000000000 :
b1010 ;
b10100101 <
bx =
bx >
$end
#100
b0 $
b0 ,
b0 -
b0 .
bx0 /
#10000
1!
1+
10
#11000
b1010 "
b10100101 #
1%
1&
11
12
b1010 3
b10100101 4
#20000
0!
0+
00
#30000
1!
1+
10
#31000
0%
0&
01
02
#40000
0!
0+
00
#50000
1!
1+
10
02
#60000
0!
0+
00
#70000
1!
1+
10
#71000
1%
11
b1010 3
#80000
0!
0+
00
#90000
1!
1+
10
#91000
0%
01
#100000
0!
0+
00
#110000
1!
1+
10
02
b0 6
b0 <
b1111 =
b0 >
#120000
0!
0+
00
#130000
1!
1+
10
#131000
b1111 "
1%
11
b1111 3
#140000
0!
0+
00
#150000
1!
1+
10
#151000
0%
01
#160000
0!
0+
00
#170000
1!
1+
10
02
b0 >
#180000
0!
0+
00
#190000
1!
1+
10
#191000
b0 #
1%
1&
11
12
b1111 3
b0 4
#200000
0!
0+
00
#210000
1!
1+
10
#211000
0%
0&
01
02
#220000
0!
0+
00
#230000
1!
1+
10
02
#240000
0!
0+
00
#250000
1!
1+
10
#251000
1%
11
b1111 3
#260000
0!
0+
00
#270000
1!
1+
10
#271000
0%
01
#280000
0!
0+
00
#290000
1!
1+
10
15
b0 6
b0 >
